blogpost
…
Let’s investigate the dep_times shorter than 3:

flights %>% 
  arrow_table() %>% 
  mutate(
    dep_time_length = nchar(as.character(dep_time)),
    .keep = "used"
  ) %>% 
  filter(dep_time_length < 3) %>% 
  collect()

# A tibble: 881 × 2
   dep_time dep_time_length
      <int>           <int>
 1       42               2
 2       32               2
 3       50               2
 4       25               2
 5       14               2
 6       37               2
 7       16               2
 8       49               2
 9        2               1
10        8               1
# … with 871 more rows
…
    dep_time_length = nchar(dep_time),
    .keep = "used"
  ) %>% 
  filter(dep_time_length >= 3) %>% 
  mutate(dep_hour = if_else(
      dep_time_length == 3,
      str_sub(dep_time, start = 1, end = 1),
      str_sub(dep_time, start = 1, end = 2)
    ),
    dep_minute = str_sub(dep_time, start = -2),
    dep_time_sep = str_c(dep_hour, dep_minute, sep = ":")
  ) %>% 
  collect()

# A tibble: 327,640 × 5
   dep_time dep_time_length dep_hour dep_minute dep_time_sep
   <chr>              <int> <chr>    <chr>      <chr>       
 1 517                    3 5        17         5:17        
 2 533                    3 5        33         5:33        
 3 542                    3 5        42         5:42        
 4 544                    3 5        44         5:44        
 5 554                    3 5        54         5:54        
 6 554                    3 5        54         5:54        
 7 555                    3 5        55         5:55        
 8 557                    3 5        57         5:57        
 9 557                    3 5        57         5:57        
10 558                    3 5        58         5:58        
# … with 327,630 more rows
…
Now let’s re-write the previous chunk using this function:

flights %>% 
  arrow_table() %>% 
  mutate(
    dep_time = as.character(dep_time),
    dep_time_length = nchar(dep_time),
    .keep = "used"
  ) %>% 
  filter(dep_time_length >= 3) %>% 
  mutate(dep_time_sep = sep_hour_minute(dep_time)) %>% 
  collect()

# A tibble: 327,640 × 3
   dep_time dep_time_length dep_time_sep
   <chr>              <int> <chr>       
 1 517                    3 5:17        
 2 533                    3 5:33        
 3 542                    3 5:42        
 4 544                    3 5:44        
 5 554                    3 5:54        
 6 554                    3 5:54        
 7 555                    3 5:55        
 8 557                    3 5:57        
 9 557                    3 5:57        
10 558                    3 5:58        
# … with 327,630 more rows

flights %>% 
  arrow_table() %>% 
  mutate(
    depart_time_stringr = 
      stringr::str_c(year, "-", month, "-", day)
  ) %>% 
  collect()

# A tibble: 336,776 × 20
    year month   day dep_time sched_dep_time dep_delay arr_time sched_arr_time
   <int> <int> <int>    <int>          <int>     <dbl>    <int>          <int>
 1  2013     1     1      517            515         2      830            819
 2  2013     1     1      533            529         4      850            830
 3  2013     1     1      542            540         2      923            850
 4  2013     1     1      544            545        -1     1004           1022
 5  2013     1     1      554            600        -6      812            837
 6  2013     1     1      554            558        -4      740            728
 7  2013     1     1      555            600        -5      913            854
 8  2013     1     1      557            600        -3      709            723
 9  2013     1     1      557            600        -3      838            846
10  2013     1     1      558            600        -2      753            745
# … with 336,766 more rows, and 12 more variables: arr_delay <dbl>,
#   carrier <chr>, flight <int>, tailnum <chr>, origin <chr>, dest <chr>,
#   air_time <dbl>, distance <dbl>, hour <dbl>, minute <dbl>, time_hour <dttm>,
#   depart_time_stringr <chr>
…
